^C:\USERS\DRACULA_2\DOCUMENTS\VISUAL STUDIO 2017\PROJECTS\ASM2\ASM2\STDAFX.CPP
/c /ZI /nologo /W3 /WX- /diagnostics:classic /sdl /Od /Oy- /D WIN32 /D _DEBUG /D _CONSOLE /D _UNICODE /D UNICODE /Gm /EHsc /RTC1 /MDd /GS /fp:precise /Zc:wchar_t /Zc:forScope /Zc:inline /Yc"stdafx.h" /Fp"DEBUG\ASM2.PCH" /Fo"DEBUG\\" /Fd"DEBUG\VC141.PDB" /Gd /TP /analyze- C:\USERS\DRACULA_2\DOCUMENTS\VISUAL STUDIO 2017\PROJECTS\ASM2\ASM2\STDAFX.CPP
^C:\USERS\DRACULA_2\DOCUMENTS\VISUAL STUDIO 2017\PROJECTS\ASM2\ASM2\ASM2.CPP
/c /ZI /nologo /W3 /WX- /diagnostics:classic /sdl /Od /Oy- /D WIN32 /D _DEBUG /D _CONSOLE /D _UNICODE /D UNICODE /Gm /EHsc /RTC1 /MDd /GS /fp:precise /Zc:wchar_t /Zc:forScope /Zc:inline /Yu"stdafx.h" /Fp"DEBUG\ASM2.PCH" /Fo"DEBUG\\" /Fd"DEBUG\VC141.PDB" /Gd /TP /analyze- C:\USERS\DRACULA_2\DOCUMENTS\VISUAL STUDIO 2017\PROJECTS\ASM2\ASM2\ASM2.CPP
^C:\USERS\DRACULA_2\DOCUMENTS\VISUAL STUDIO 2017\PROJECTS\ASM2\ASM2\ASM2NEW.CPP
/c /ZI /nologo /W3 /WX- /diagnostics:classic /sdl /Od /Oy- /D WIN32 /D _DEBUG /D _CONSOLE /D _UNICODE /D UNICODE /Gm /EHsc /RTC1 /MDd /GS /fp:precise /Zc:wchar_t /Zc:forScope /Zc:inline /Yu"stdafx.h" /Fp"DEBUG\ASM2.PCH" /Fo"DEBUG\\" /Fd"DEBUG\VC141.PDB" /Gd /TP /analyze- C:\USERS\DRACULA_2\DOCUMENTS\VISUAL STUDIO 2017\PROJECTS\ASM2\ASM2\ASM2NEW.CPP
^C:\USERS\DRACULA_2\DOCUMENTS\VISUAL STUDIO 2017\PROJECTS\ASM2\ASM2\ASM3.CPP
/c /ZI /nologo /W3 /WX- /diagnostics:classic /sdl /Od /Oy- /D WIN32 /D _DEBUG /D _CONSOLE /D _UNICODE /D UNICODE /Gm /EHsc /RTC1 /MDd /GS /fp:precise /Zc:wchar_t /Zc:forScope /Zc:inline /Yu"stdafx.h" /Fp"DEBUG\ASM2.PCH" /Fo"DEBUG\\" /Fd"DEBUG\VC141.PDB" /Gd /TP /analyze- C:\USERS\DRACULA_2\DOCUMENTS\VISUAL STUDIO 2017\PROJECTS\ASM2\ASM2\ASM3.CPP
